…
> 
> # Recipe
> my_recipe <- recipe(IsBadBuy ~ ., data = training) %>%
+   step_novel(all_nominal_predictors(), -all_outcomes()) %>%
+   step_unknown(all_nominal_predictors()) %>% 
+   step_lencode_mixed(all_nominal_predictors(), outcome = vars(IsBadBuy)) %>%
+   step_impute_mean(all_numeric_predictors()) %>%
+   step_corr(all_numeric_predictors(), threshold = .7) %>%
+   step_zv() %>%
+   step_normalize(all_numeric_predictors())
> 
> prep <- prep(my_recipe)
boundary (singular) fit: see help('isSingular')
> bake(prep, new_data=training)
# A tibble: 72,983 × 23
   RefId PurchDate Auction VehicleAge   Model    Trim SubModel  Color
   <dbl>     <dbl>   <dbl>      <dbl>   <dbl>   <dbl>    <dbl>  <dbl>
 1 -1.73     0.995   -2.00     -0.687  0.529   0.126    0.0892 -1.19 
 2 -1.73     0.995   -2.00      0.481 -0.0603  0.0990  -0.159  -0.231
 3 -1.73     0.995   -2.00     -0.103  0.319   0.811    3.37   -0.518
 4 -1.73     0.995   -2.00      0.481 -1.79    0.811   -0.142  -0.182
 5 -1.73     0.995   -2.00     -0.103 -1.01   -1.08    -0.874  -0.182
 6 -1.73     0.995   -2.00      0.481  1.06   -0.434   -0.413  -0.231
 7 -1.73     0.995   -2.00      0.481  0.531  -0.0962   0.576   1.36 
 8 -1.73     0.995   -2.00     -0.103 -0.630  -0.104   -0.390  -0.231
 9 -1.73     0.995   -2.00     -1.27   0.531  -0.0962   0.576   1.36 
10 -1.73     0.995   -2.00     -1.27   0.692   0.913    1.03   -1.19 
# ℹ 72,973 more rows
# ℹ 15 more variables: Transmission <dbl>, WheelTypeID <dbl>, WheelType <dbl>,
#   VehOdo <dbl>, Nationality <dbl>, Size <dbl>, TopThreeAmericanName <dbl>,
#   AUCGUART <dbl>, BYRNO <dbl>, VNZIP1 <dbl>, VNST <dbl>, VehBCost <dbl>,
#   IsOnlineSale <dbl>, WarrantyCost <dbl>, IsBadBuy <fct>
…
